<svg xmlns="http://www.w3.org/2000/svg" xmlns:xlink="http://www.w3.org/1999/xlink" version="1.1" x="0px" y="0px" viewBox="0 0 252.9 228.1" style="enable-background:new 0 0 252.9 228.1;" xml:space="preserve">
<defs><style type="text/css">
	.shape-dark-blue {
		fill-rule: evenodd;
		clip-rule: evenodd;
		fill: #004067;
		stroke: #fff;
		stroke-width: 1.5px;
	}
</style></defs>
	<title>Milwaukee Chapter</title>
	<polygon class="shape-dark-blue county-washington" points="148.1,106.1 105.3,111.9 100.9,83.1 102.4,82.8 99.1,53.7 128.1,49.8 142.7,48.2 146.5,77.4   144.1,77.7  "/>
	<polygon class="shape-dark-blue county-ozaukee" points="148.1,106.1 144.1,77.7 146.5,77.4 142.7,48.2 172.1,43.2 172.3,58 166,75.8 168.3,102.7  "/>
	<polygon class="shape-dark-blue county-waukesha" points="156.8,164 128,168.4 99.3,172.5 90.6,113.9 105.3,111.9 148.1,106.1  "/>
	<polygon class="shape-dark-blue county-milwaukee" points="156.8,164 148.1,106.1 168.3,102.7 174.8,122.1 172.2,130.9 180.3,139.9 185.3,159.7  "/>
</svg>