<svg xmlns="http://www.w3.org/2000/svg" xmlns:xlink="http://www.w3.org/1999/xlink" version="1.1" x="0px" y="0px" viewBox="0 0 252.9 228.1" style="enable-background:new 0 0 252.9 228.1;" xml:space="preserve">
	<defs>
		<style type="text/css">
			.shape-red {
				fill-rule: evenodd;
				clip-rule: evenodd;
				fill: #e43535;
				stroke: #fff;
				stroke-width: 1.5px;
			}
		</style>
	</defs>
	<title>La Crosse Chapter</title>
	<polygon class="shape-red county-monroe" points="144.3,152.6 139.3,94.8 132.1,94.8 131.8,84.6 134.8,81.4 139.4,79.5 210.8,74 216.4,146.1   201.7,148.4  "/>
	<polygon class="shape-red county-la-crosse" points="144.3,152.6 102.3,156.5 102.4,145.5 96.6,136 85.5,120 78.6,114 90.1,112.7 87.6,105.3 88.7,102.8   92.4,99.6 97,98.2 101.8,99.9 106.7,94.3 110.9,96.1 132.1,94.8 139.3,94.8  "/>
	<polygon class="shape-red county-vernon" points="177.6,200.9 112.1,205.8 108.5,199.3 109.6,193.2 106.9,185.3 107.1,176.9 103,164.1 102.3,156.5   144.3,152.6 201.7,148.4 216.4,146.1 217.5,160.7 218.5,174.8 175.9,178.4  "/>
	<polygon class="shape-red county-buffalo" points="52.3,85 53.8,80.7 52,78.5 61.1,71.2 59.8,50.5 54.9,51.4 26,84 23.8,83.5 35.4,91.5 48.4,102.5   54.8,106.5 58.8,107.2 59.8,99.3 61.4,96.4 58,89.2  "/>
	<polygon class="shape-red county-jackson" points="139.3,78.5 209.8,73.1 208.8,58.3 206.1,30.7 147.7,35.4 146.3,20.8 143.1,20.9 105.9,45.1   107.6,66.3 109.5,66.4 111.8,95 131.1,93.9 130.8,84.2 134.2,80.6 139.1,78.5  "/>
<polygon class="shape-red county-trempealeau" points="109.8,94.5 107.6,68.3 105.8,68.3 103.6,41.1 61.9,48.4 61.7,48.6 63.5,71.6 54.9,78.7 56.4,80.5  55,84.7 60.4,88.5 64.1,96.3 62.4,99.6 61.7,106.1 65.8,105.9 78.8,113 88.7,111.9 86.5,105.2 87.9,102.2 91.9,98.7 97,97.1   101.5,98.7 106.4,93.1 "/>
</svg>